{
    "uid": "index",
    "title": "Test",
    "gallery": [
        {
            "image": "./assets/images/pages/index/gallery/image-1.jpg"
        },
        {
            "image": "./assets/images/pages/index/gallery/image-2.jpg"
        },
        {
            "image": "./assets/images/pages/index/gallery/image-3.jpg"
        },
        {
            "image": "./assets/images/pages/index/gallery/image-4.jpg"
        },
        {
            "image": "./assets/images/pages/index/gallery/image-5.jpg"
        },
        {
            "image": "./assets/images/pages/index/gallery/image-6.jpg"
        },
        {
            "image": "./assets/images/pages/index/gallery/image-7.jpg"
        },
        {
            "image": "./assets/images/pages/index/gallery/image-8.jpg"
        },
        {
            "image": "./assets/images/pages/index/gallery/image-9.jpg",
            "mods": "full first"
        },
        {
            "image": "./assets/images/pages/index/gallery/image-10.jpg",
            "mods": "full second"
        }
    ]
}
